{
  "sites": [

{"key":"  线路麻豆","name":"  线路麻豆","type":1,"api":"https://91md.me/api.php/provide/vod/","searchable":0,"quickSearch":0},

{"key":"","name":"  线路 ","type":1,"api":"https://siwazyw.cc/api.php/provide/vod/","searchable":0,"quickSearch":0},
{"key":"","name":"  线路   ","type":1,"api":"https://api.xiuseapi.com/api.php/provide/vod/","searchable":0,"quickSearch":0},
{"key":"  线路","name":"  线路 ","type":1,"api":"https://apittzy.com/api.php/provide/vod/","searchable":0,"quickSearch":0},
{"key":"  线路 ","name":"  线路 ","type":1,"api":"https://api.maozyapi.com/inc/apijson_vod.php","searchable":0,"quickSearch":0},
{"key":"  线路 ","name":"  线路 ","type":1,"api":"https://caiji.huakuiapi.com/inc/apijson_vod.php","searchable":0,"quickSearch":0},
{"key":"  线路 ","name":"  线路 ","type":1,"api":"https://api.putaozy.net/inc/apijson_vod.php","searchable":0,"quickSearch":0},
{"key":"  线路 ","name":"  线路 ","type":1,"api":"https://sewozyapi.com/api.php/provide/vod/","searchable":0,"quickSearch":0},
{"key":"  线路","name":"  线路 ","type":1,"api":"https://api.yinwoapi.com/api.php/provide/vod/","searchable":0,"quickSearch":0},
{"key":"  线路 ","name":"  线路 ","type":0,"api":"http://www.shabizy.com:777/inc/sea","searchable":0,"quickSearch":0},
{"key":"  线路 ","name":"  线路 ","type":0,"api":"http://sdszyapi.com/home/cjapi/asbb/mc10/vod/xml","searchable":0,"quickSearch":0},
{"key":"  线路","name":"  线路 ","type":0,"api":"https://xjjzyapi.com/home/cjapi/askl/mc10/vod/xml","searchable":0,"quickSearch":0},
{"key":"  线路52AVAV","name":"  线路52AVAV","type":0,"api":"https://52zyapi.com/home/cjapi/asda/mc10/vod/xml","searchable":0,"quickSearch":0},
//{"key":"  线路 ","name":"  线路 ","type":1,"api":"https://www.sldcaiji.com/home/cjapi/s6da/mc10/vod/json","searchable":0,"quickSearch":0},
{"key":"  线路","name":"  线路","type":0,"api":"http://www.caiji21.com/home/cjapi/klkl/mc10/vod/xml","searchable":0,"quickSearch":0},
{"key":"  线路","name":"  线路","type":0,"api":"https://www.caiji22.com/home/cjapi/klp0/mc10/vod/xml","searchable":0,"quickSearch":0},
{"key":"  线路 ","name":"  线路 ","type":0,"api":"https://www.caiji23.com/home/cjapi/kls6/mc10/vod/xml","searchable":0,"quickSearch":0},
{"key":"  线路 ","name":"  线路 ","type":0,"api":"http://www.caiji24.com/home/cjapi/p0d2/mc10/vod/xml","searchable":0,"quickSearch":0},
{"key":"  线路 ","name":"  线路 ","type":0,"api":"http://www.caiji25.com/home/cjapi/p0as/mc10/vod/xml","searchable":0,"quickSearch":0},
{"key":"  线路鲍鱼","name":"  线路鲍鱼","type":0,"api":"http://caiji26.com/home/cjapi/p0g8/mc10/vod/xml","searchable":0,"quickSearch":0},
{"key":"  线路 ","name":"  线路 ","type":0,"api":"https://jgczyapi.com/home/cjapi/kld2/mc10/vod/xml","searchable":0,"quickSearch":0},
{"key":"  线路","name":"  线路","type":0,"api":"https://xx55zyapi.com/home/cjapi/ascf/mc10/vod/xml","searchable":0,"quickSearch":0},
//{"key":"  线路 ","name":"  线路 ","type":1,"api":"http://www.yrqcaiji.com/home/cjapi/s6c7/mc10/vod/json","searchable":0,"quickSearch":0},
//{"key":"  线路 ","name":"  线路 ","type":1,"api":"http://xcncaiji.com/home/cjapi/s6bb/mc10/vod/json","searchable":0,"quickSearch":0},
{"key":"  线路 ","name":"  线路","type":0,"api":"https://www.dmmapi.com/home/cjapi/asd2c7/mc10/vod/xml","searchable":0,"quickSearch":0},
{"key":"  线路 ","name":"  线路 ","type":0,"api":"https://www.caiji10.com/home/cjapi/cfs6/mc10/vod/xml","searchable":0,"quickSearch":0},
{"key":"  线路 ","name":"  线路 ","type":0,"api":"https://www.caiji09.com/home/cjapi/cfp0/mc10/vod/xml","searchable":0,"quickSearch":0},
{"key":"  线路大 ","name":"  线路大 ","type":0,"api":"https://www.caiji08.com/home/cjapi/cfkl/mc10/vod/xml","searchable":0,"quickSearch":0},
{"key":"  线路在线","name":"  线路在线","type":0,"api":"https://www.caiji07.com/home/cjapi/cfcf/mc10/vod/xml","searchable":0,"quickSearch":0},
{"key":"  线路在线","name":"  线路在线","type":0,"api":"https://www.caiji06.com/home/cjapi/cfbb/mc10/vod/xml","searchable":0,"quickSearch":0},
{"key":"  线路视频","name":"  线路视频","type":0,"api":"https://www.caiji05.com/home/cjapi/cfda/mc10/vod/xml","searchable":0,"quickSearch":0},
{"key":"  线路视频","name":"  线路视频","type":0,"api":"https://www.caiji04.com/home/cjapi/cfc7/mc10/vod/xml","searchable":0,"quickSearch":0},
{"key":"  线路 ","name":"  线路 ","type":0,"api":"https://www.caiji03.com/home/cjapi/cfg8/mc10/vod/xml","searchable":0,"quickSearch":0},
{"key":"  线路视频","name":"  线路视频","type":0,"api":"https://www.caiji02.com/home/cjapi/cfas/mc10/vod/xml","searchable":0,"quickSearch":0},
{"key":"  线路亚洲在线","name":"  线路亚洲在线","type":0,"api":"https://www.caiji01.com/home/cjapi/cfd2/mc10/vod/xml","searchable":0,"quickSearch":0},
{"key":"  线路 ","name":"  线路 ","type":0,"api":"http://www.987caiji.com/api/max.php","searchable":0,"quickSearch":0},
{"key":"  线路99 ","name":"  线路99 ","type":1,"api":"http://99zy.pw/api.php/provide/vod/","searchable":0,"quickSearch":0},
//{"key":"  线路99 吧","name":"  线路99 吧","type":1,"api":"http://99zyba.com/api.php/provide/vod/","searchable":0,"quickSearch":0},
{"key":"  线路 ","name":"  线路酷豆 ","type":1,"api":"https://kudouzy.com/api.php/provide/vod/","searchable":0,"quickSearch":0},
{"key":"  线路","name":"  线路","type":1,"api":"https://api.kdapi.info/api.php/provide/vod/","searchable":0,"quickSearch":0},
{"key":"  线路","name":"  线路","type":1,"api":"https://api.kudian70.com/api.php/provide/vod/","searchable":0,"quickSearch":0},
{"key":"  线路 ","name":"  线路","type":1,"api":"https://api.ykapi.net/api.php/provide/vod/","searchable":0,"quickSearch":0},
{"key":"  线路 ","name":"  线路 ","type":1,"api":"https://cj.apiabzy.com/api.php/provide/vod/","searchable":0,"quickSearch":0},
{"key":"  线路","name":"  线路 ","type":0,"api":"https://www.msnii.com/api/xml.php","searchable":0,"quickSearch":0},
{"key":"  线路 ","name":"  线路 ","type":0,"api":"https://www.xrbsp.com/api/xml.php","searchable":0,"quickSearch":0},
{"key":"  线路 ","name":"  线路 ","type":0,"api":"https://www.gdlsp.com/api/xml.php","searchable":0,"quickSearch":0},
{"key":"  线路 ","name":"  线路 ","type":0,"api":"https://www.kxgav.com/api/xml.php","searchable":0,"quickSearch":0},
{"key":"  线路 ","name":"  线路 ","type":0,"api":"https://www.afasu.com/api/xml.php","searchable":0,"quickSearch":0},
{"key":"  线路","name":"  线路 ","type":0,"api":"https://dadiapi.com/api.php","searchable":0,"quickSearch":0},
{"key":"  线路CK ","name":"  线路CK ","type":1,"api":"http://www.feifei67.com/api.php/provide/vod/","searchable":0,"quickSearch":0},
{"key":"  线路 ","name":"  线路","type":1,"api":"https://api.apilyzy.com/api.php/provide/vod/","searchable":0,"quickSearch":0},
{"key":"  线路 ","name":"  线路 ","type":1,"api":"https://apihjzy.com/api.php/provide/vod/","searchable":0,"quickSearch":0},
{"key":"  线路","name":"  线路 ","type":1,"api":"https://lbapi9.com/api.php/provide/vod/","searchable":0,"quickSearch":0},
{"key":"  线路","name":"  线路","type":0,"api":"http://bttcj.com/inc/sapi.php","searchable":0,"quickSearch":0},
{"key":"  线路","name":"  线路 ","type":0,"api":"http://wmcj8.com/inc/sapi.php","searchable":0,"quickSearch":0},
{"key":"  线路AVZY6888 ","name":"  线路AVZY6888 ","type":1,"api":"http://m.7777688.com/inc/apijson.php","searchable":0,"quickSearch":0},
{"key":"  线路 ","name":"  线路","type":0,"api":"http://secj8.com/inc/sapi.php?ac=videolist","searchable":0,"quickSearch":0},
{"key":"  线路玖玖 ","name":"  线路玖玖 ","type":0,"api":"http://99zywcj.com/inc/sapi.php?ac=videolist","searchable":0,"quickSearch":0},
{"key":"  线路少年","name":"  线路少年","type":0,"api":"http://cjmygzy.com/inc/sapi.php?ac=videolist","searchable":0,"quickSearch":0},
{"key":"  线路 ","name":"  线路 ","type":1,"api":"http://www.jializyzapi.com/api.php/provide/vod/","searchable":0,"quickSearch":0},
{"key":"  线路 ","name":"  线路 ","type":1,"api":"http://fhapi9.com/api.php/provide/vod/","searchable":0,"quickSearch":0},
{"key":"  线路鲨鱼 ","name":"  线路鲨鱼 ","type":1,"api":"https://shayuapi.com/api.php/provide/vod/","searchable":0,"quickSearch":0},
{"key":"  线路速度 ","name":"  线路速度 ","type":0,"api":"http://www.ggmmzy.com:9999/inc/xml","searchable":0,"quickSearch":0},
    {
      "key": "zp098",
      "name": " ",
      "type": 0,
      "api": "http://laoyazy.vip/api.php/provide/vod/at/xml",
      "searchable": 1,
      "quickSearch": 1,
      "filterable": 0
    }
  ],
  "lives": [
    {
      "group": "redirect",
      "channels": [
        {
          "name": "redirect",
          "urls": [
            "proxy://do=live&type=txt&ext=aHR0cHM6Ly9rZHMyLmNvZGluZy5uZXQvcC9rL2Qvay9naXQvcmF3L21hc3Rlci9tYW9saXZlLnR4dA=="
          ]
        }
      ]
    }
  ],
  "parses": [
    {
      "name": "解析聚合",
      "type": 3,
      "url": "Demo"
    },
    {
      "name": "Json并发",
      "type": 2,
      "url": "Parallel"
    },
    {
      "name": "Json轮询",
      "type": 2,
      "url": "Sequence"
    },
    {
      "name": "飞捷",
      "type": 1,
      "url": "https://fjkkk.cn/toujiexisiquanjia.php?url=",
      "ext": {
        "flag": [
          "qq",
          "腾讯",
          "letv",
          "乐视",
          "mgtv",
          "芒果",
          "youku",
          "优酷",
          "qiyi",
          "iqiyi",
          "爱奇艺",
          "奇艺"
        ]
      }
    },
    {
      "name": "集象",
      "type": 1,
      "url": "http://110.42.2.115:880/analysis/json/?uid=2245&my=cdfhirsuwyEGIPU346&url=",
      "ext": {
        "flag": [
          "qq",
          "腾讯",
          "qiyi",
          "爱奇艺",
          "奇艺",
          "youku",
          "优酷",
          "sohu",
          "搜狐",
          "letv",
          "乐视",
          "mgtv",
          "芒果",
          "CL4K",
          "renrenmi",
          "ltnb",
          "xigua"
        ]
      }
    },
    {
      "name": "急速1",
      "type": 1,
      "url": "https://www.daina.hk/api/?key=RXpzyrbMFYySN0sNps&url=",
      "ext": {
        "flag": [
          "qq",
          "腾讯",
          "qiyi",
          "爱奇艺",
          "奇艺",
          "youku",
          "优酷",
          "sohu",
          "搜狐",
          "letv",
          "乐视",
          "mgtv",
          "芒果",
          "CL4K",
          "renrenmi",
          "ltnb",
          "xigua"
        ]
      }
    },
    {
      "name": "急速3",
      "type": 1,
      "url": "https://jx.parwix.com:4433/player/?url=",
      "ext": {
        "flag": [
          "qq",
          "腾讯",
          "qiyi",
          "爱奇艺",
          "奇艺",
          "youku",
          "优酷",
          "mgtv",
          "芒果",
          "letv",
          "乐视",
          "pptv",
          "PPTV",
          "sohu",
          "bilibili",
          "哔哩哔哩",
          "哔哩"
        ]
      }
    },
    {
      "name": "VIP3",
      "type": 1,
      "url": "http://jifei.mrcy0.com/home/api?type=ys&uid=2752189&key=aefghtACLNRSZ01247&url=",
      "ext": {
        "flag": [
          "qq",
          "腾讯",
          "letv",
          "乐视",
          "mgtv",
          "芒果",
          "youku",
          "优酷",
          "qiyi",
          "iqiyi",
          "爱奇艺",
          "奇艺"
        ]
      }
    },
    {
      "name": "急速6",
      "type": 1,
      "url": "http://api.vip123kan.vip/?url=",
      "ext": {
        "flag": [
          "youku",
          "优酷",
          "mgtv",
          "芒果",
          "qq",
          "腾讯",
          "qiyi",
          "爱奇艺",
          "qq",
          "奇艺"
        ]
      }
    },
    {
      "name": "急速8",
      "type": 1,
      "url": "http://yaluan.520say.cn/home/api?type=ys&uid=65588&key=cdeghikortvAFGI078&url=",
      "ext": {
        "flag": [
          "CL4K",
          "饭后独播",
          "芒果视频",
          "youku",
          "rx",
          "ltnb",
          "优酷",
          "qiyi",
          "爱奇艺",
          "奇艺",
          "renrenmi",
          "qq",
          "腾讯",
          "腾讯视频",
          "letv",
          "乐视"
        ]
      }
    },
    {
      "name": "急速4",
      "type": 1,
      "url": "https://jf.96ym.cn/home/api?type=ys&uid=1319830&key=cefgnoprtvxyzBGKP6&url=",
      "ext": {
        "flag": [
          "qq",
          "腾讯",
          "letv",
          "乐视",
          "mgtv",
          "芒果",
          "youku",
          "优酷",
          "qiyi",
          "iqiyi",
          "爱奇艺",
          "奇艺"
        ]
      }
    },
    {
      "name": "急速5",
      "type": 1,
      "url": "http://ck.laobandq.com/3515240842.php?pltfrom=1100&url=",
      "ext": {
        "flag": [
          "qq",
          "腾讯",
          "qiyi",
          "爱奇艺",
          "奇艺",
          "youku",
          "优酷",
          "sohu",
          "搜狐",
          "letv",
          "乐视",
          "mgtv",
          "芒果",
          "CL4K",
          "renrenmi",
          "ltnb",
          "xigua"
        ]
      }
    },
    {
      "name": "急速9",
      "type": 1,
      "url": "https://api.exeyz.cc/api/Json.php?url="
    },
    {
      "name": "海星解析",
      "type": 1,
      "url": "http://110.42.2.115:880/analysis/json/?uid=1735&my=hjklmsuwyzDGHIKXY3&url=",
      "ext": {
        "flag": [
          "qq",
          "腾讯",
          "letv",
          "乐视",
          "mgtv",
          "芒果",
          "youku",
          "优酷",
          "qiyi",
          "iqiyi",
          "爱奇艺",
          "奇艺"
        ]
      }
    },
    {
      "name": "VIP1",
      "type": 1,
      "url": "http://110.42.2.115:880/analysis/json/?uid=2233&my=eginqstBCJMNSUX689&url=",
      "ext": {
        "flag": [
          "qq",
          "腾讯",
          "letv",
          "乐视",
          "mgtv",
          "芒果",
          "youku",
          "优酷",
          "qiyi",
          "iqiyi",
          "爱奇艺",
          "奇艺"
        ]
      }
    },
    {
      "name": "MuX蓝光解析（辉夜）",
      "type": 1,
      "url": "https://vvip.funsline.cn/api/?key=8vMzuXb87MWtyJeECE&url=",
      "ext": {
        "flag": [
          "qq",
          "腾讯",
          "qiyi",
          "爱奇艺",
          "奇艺",
          "youku",
          "优酷",
          "sohu",
          "搜狐",
          "letv",
          "乐视",
          "mgtv",
          "芒果",
          "CL4K",
          "renrenmi",
          "ltnb",
          "xigua",
          "rongxing",
          "rx",
          "xfy",
          "xueren"
        ]
      }
    },
    {
      "name": "猫群专用解析y1",
      "type": 1,
      "url": "http://chaloli.cn/home/api?type=ys&uid=705072&key=abcdegipstBCFMSVZ6&url=",
      "ext": {
        "flag": [
          "youku",
          "qq",
          "iqiyi",
          "qiyi",
          "letv",
          "sohu",
          "letv",
          "tudou",
          "pptv",
          "mgtv",
          "wasu",
          "bilibili",
          "leduo",
          "fq3",
          "fq4",
          "xueren",
          "duoduo",
          "duoduozy",
          "miaoparty",
          "miaoparty2",
          "miaoparty3",
          "renrenmi",
          "优酷",
          "芒果",
          "腾讯",
          "爱奇艺",
          "奇艺",
          "ltnb",
          "rx",
          "CL4K",
          "xfyun",
          "wuduzy"
        ]
      }
    },
    {
      "name": "猫群专用解析y2",
      "type": 1,
      "url": "http://chaloli.cn/home/api?type=ys&uid=705072&key=abcdegipstBCFMSVZ6&fs=sm&url=",
      "ext": {
        "flag": [
          "youku",
          "qq",
          "iqiyi",
          "qiyi",
          "letv",
          "sohu",
          "letv",
          "tudou",
          "pptv",
          "mgtv",
          "wasu",
          "bilibili",
          "leduo",
          "fq3",
          "fq4",
          "xueren",
          "duoduo",
          "duoduozy",
          "miaoparty",
          "miaoparty2",
          "miaoparty3",
          "renrenmi",
          "优酷",
          "芒果",
          "腾讯",
          "爱奇艺",
          "奇艺",
          "ltnb",
          "rx",
          "CL4K",
          "xfyun",
          "wuduzy"
        ]
      }
    },
    {
      "name": "猫群专用解析y3",
      "type": 1,
      "url": "http://chaloli.cn/home/api?type=ys&uid=705072&key=abcdegipstBCFMSVZ6&fs=hz&url=",
      "ext": {
        "flag": [
          "youku",
          "qq",
          "iqiyi",
          "qiyi",
          "letv",
          "sohu",
          "letv",
          "tudou",
          "pptv",
          "mgtv",
          "wasu",
          "bilibili",
          "leduo",
          "fq3",
          "fq4",
          "xueren",
          "duoduo",
          "duoduozy",
          "miaoparty",
          "miaoparty2",
          "miaoparty3",
          "renrenmi",
          "优酷",
          "芒果",
          "腾讯",
          "爱奇艺",
          "奇艺",
          "ltnb",
          "rx",
          "CL4K",
          "xfyun",
          "wuduzy"
        ]
      }
    },
    {
      "name": "猫群专用解析02",
      "type": 1,
      "url": "https://json.pangujiexi.com/json.php?url=",
      "ext": {
        "flag": [
          "youku",
          "优酷",
          "qq",
          "腾讯",
          "qiyi",
          "爱奇艺",
          "奇艺"
        ]
      }
    },
    {
      "name": "猫群专用解析03",
      "type": 1,
      "url": "https://vip.aiaine.com/api/?key=8FN8gNAySnvJiMllxZ&url=",
      "ext": {
        "flag": [
          "Itnb",
          "wuduzy"
        ]
      }
    },
    {
      "name": "猫群专用解析04",
      "type": 1,
      "url": "http://api.vip123kan.vip/?url=",
      "ext": {
        "flag": [
          "youku",
          "优酷",
          "mgtv",
          "芒果",
          "qq",
          "腾讯",
          "qiyi",
          "爱奇艺",
          "qq",
          "xigua",
          "奇艺"
        ]
      }
    },
    {
      "name": "猫群专用解析05",
      "type": 1,
      "url": "https://a.dxzj88.com/jxrrm/jiami.php?url=",
      "ext": {
        "flag": [
          "qq",
          "腾讯",
          "qiyi",
          "爱奇艺",
          "奇艺",
          "youku",
          "优酷",
          "sohu",
          "芒果",
          "mgtv",
          "xigua",
          "wuduzy",
          "bilibili",
          "pptv",
          "leduo",
          "Clk4",
          "哔哩",
          "renrenmi",
          "ltnb",
          "rx"
        ]
      }
    },
    {
      "name": "猫群专用解析06",
      "type": 1,
      "url": "https://sz.dxzj88.com/jxrjrm/jiaomi.php?url=",
      "ext": {
        "flag": [
          "qq",
          "腾讯",
          "qiyi",
          "爱奇艺",
          "奇艺",
          "youku",
          "优酷",
          "sohu",
          "芒果",
          "mgtv",
          "xigua",
          "wuduzy",
          "bilibili",
          "pptv",
          "leduo",
          "Clk4",
          "哔哩",
          "renrenmi",
          "ltnb",
          "rx"
        ]
      }
    },
    {
      "name": "急速2",
      "type": 1,
      "url": "https://api.m3u8.tv:5678/home/api?type=ys&uid=1931000&key=gktuvyzABEORSYZ135&url=",
      "ext": {
        "flag": [
          "youku",
          "优酷",
          "qq",
          "腾讯",
          "mgtv",
          "芒果"
        ]
      }
    },
    {
      "name": "群鑫影视",
      "type": 1,
      "url": "http://cl.yjhan.com:8090/home/api?type=ys&uid=651075&key=aehuDFGIJSVWX24589&url=",
      "ext": {
        "flag": [
          "youku",
          "优酷",
          "qiyi",
          "爱奇艺",
          "奇艺",
          "qq",
          "腾讯"
        ]
      }
    }
  ],
  "flags": [
    "youku",
    "qq",
    "iqiyi",
    "qiyi",
    "letv",
    "sohu",
    "tudou",
    "pptv",
    "mgtv",
    "wasu",
    "bilibili",
    "renrenmi",
    "优酷",
    "芒果",
    "腾讯",
    "爱奇艺",
    "奇艺",
    "ltnb",
    "rx",
    "CL4K",
    "xfyun",
    "wuduzy"
  ],
  "ijk": [
    {
      "group": "软解码",
      "options": [
        {
          "category": 4,
          "name": "opensles",
          "value": "0"
        },
        {
          "category": 4,
          "name": "overlay-format",
          "value": "842225234"
        },
        {
          "category": 4,
          "name": "framedrop",
          "value": "1"
        },
        {
          "category": 4,
          "name": "soundtouch",
          "value": "1"
        },
        {
          "category": 4,
          "name": "start-on-prepared",
          "value": "1"
        },
        {
          "category": 1,
          "name": "http-detect-range-support",
          "value": "0"
        },
        {
          "category": 1,
          "name": "fflags",
          "value": "fastseek"
        },
        {
          "category": 2,
          "name": "skip_loop_filter",
          "value": "48"
        },
        {
          "category": 4,
          "name": "reconnect",
          "value": "1"
        },
        {
          "category": 4,
          "name": "enable-accurate-seek",
          "value": "0"
        },
        {
          "category": 4,
          "name": "mediacodec",
          "value": "0"
        },
        {
          "category": 4,
          "name": "mediacodec-auto-rotate",
          "value": "0"
        },
        {
          "category": 4,
          "name": "mediacodec-handle-resolution-change",
          "value": "0"
        },
        {
          "category": 4,
          "name": "mediacodec-hevc",
          "value": "0"
        },
        {
          "category": 1,
          "name": "dns_cache_timeout",
          "value": "600000000"
        }
      ]
    },
    {
      "group": "硬解码",
      "options": [
        {
          "category": 4,
          "name": "opensles",
          "value": "0"
        },
        {
          "category": 4,
          "name": "overlay-format",
          "value": "842225234"
        },
        {
          "category": 4,
          "name": "framedrop",
          "value": "1"
        },
        {
          "category": 4,
          "name": "soundtouch",
          "value": "1"
        },
        {
          "category": 4,
          "name": "start-on-prepared",
          "value": "1"
        },
        {
          "category": 1,
          "name": "http-detect-range-support",
          "value": "0"
        },
        {
          "category": 1,
          "name": "fflags",
          "value": "fastseek"
        },
        {
          "category": 2,
          "name": "skip_loop_filter",
          "value": "48"
        },
        {
          "category": 4,
          "name": "reconnect",
          "value": "1"
        },
        {
          "category": 4,
          "name": "enable-accurate-seek",
          "value": "0"
        },
        {
          "category": 4,
          "name": "mediacodec",
          "value": "1"
        },
        {
          "category": 4,
          "name": "mediacodec-auto-rotate",
          "value": "1"
        },
        {
          "category": 4,
          "name": "mediacodec-handle-resolution-change",
          "value": "1"
        },
        {
          "category": 4,
          "name": "mediacodec-hevc",
          "value": "1"
        },
        {
          "category": 1,
          "name": "dns_cache_timeout",
          "value": "600000000"
        }
      ]
    }
  ],
  "ads": [
    "mimg.0c1q0l.cn",
    "www.googletagmanager.com",
    "www.google-analytics.com",
    "mc.usihnbcq.cn",
    "mg.g1mm3d.cn",
    "mscs.svaeuzh.cn",
    "cnzz.hhttm.top",
    "tp.vinuxhome.com",
    "cnzz.mmstat.com",
    "www.baihuillq.com",
    "s23.cnzz.com",
    "z3.cnzz.com",
    "c.cnzz.com",
    "stj.v1vo.top",
    "z12.cnzz.com",
    "img.mosflower.cn",
    "tips.gamevvip.com",
    "ehwe.yhdtns.com",
    "xdn.cqqc3.com",
    "www.jixunkyy.cn",
    "sp.chemacid.cn",
    "hm.baidu.com",
    "s9.cnzz.com",
    "z6.cnzz.com",
    "um.cavuc.com",
    "mav.mavuz.com",
    "wofwk.aoidf3.com",
    "z5.cnzz.com",
    "xc.hubeijieshikj.cn",
    "tj.tianwenhu.com",
    "xg.gars57.cn",
    "k.jinxiuzhilv.com",
    "cdn.bootcss.com",
    "ppl.xunzhuo123.com",
    "xomk.jiangjunmh.top",
    "img.xunzhuo123.com",
    "z1.cnzz.com",
    "s13.cnzz.com",
    "xg.huataisangao.cn",
    "z7.cnzz.com",
    "xg.huataisangao.cn",
    "z2.cnzz.com",
    "s96.cnzz.com",
    "q11.cnzz.com",
    "thy.dacedsfa.cn",
    "xg.whsbpw.cn",
    "s19.cnzz.com",
    "z8.cnzz.com",
    "s4.cnzz.com",
    "f5w.as12df.top",
    "ae01.alicdn.com",
    "www.92424.cn",
    "k.wudejia.com",
    "vivovip.mmszxc.top",
    "qiu.xixiqiu.com",
    "cdnjs.hnfenxun.com",
    "cms.qdwght.com"
  ],
  "wallpaper": "https://picsum.photos/1080/",
  "spider": "http://52bsj.vip:81/api/v3/file/get/23451/18.jar?sign=cCPHNxilN-Sc0TrzjkjTyk7vaqnSJYNaj10iyemLalc%3D%3A0"
}
