{
 "urls": [ 
 { 
  "url": "http://tv.nxog.top/m/1.php?ou=%E6%AC%A7%E6%AD%8C&xl=4",
  "name": "🇨🇳该仓已经修复" }, 
 {
  "url":"http://tv.nxog.top/m/1.php?ou=%E6%AC%A7%E6%AD%8C&xl=4",
  "name":"接口"},
 {
  "url":"https://raw.iqiq.io/zhanghong1983/TVBOXZY/main/tvbox.json",
  "name":"接口集合" },
 {
  "url":"https://raw.iqiq.io/zhanghong1983/TVBOXZY/main/sp.json",
  "name":"sp接口" },
 { 
  "url":"https://raw.iqiq.io/zhanghong1983/TVBOXZY/main/app.json",
  "name":"app接口" },
 {
  "url":"https://raw.iqiq.io/zhanghong1983/TVBOXZY/main/xbpq.json",
  "name":"xBPQ接口" },
 {
  "url":"https://raw.iqiq.io/zhanghong1983/TVBOXZY/main/xyq.json",
  "name":"xyq接口" },
 { 
  "url":"https://raw.iqiq.io/zhanghong1983/TVBOXZY/main/xyqh.json",
  "name":"xyqh接口" },
 { 
  "url":"https://raw.iqiq.io/zhanghong1983/TVBOXZY/main/py.json", 
  "name":"py接口" },
 { 
  "url":"https://raw.iqiq.io/zhanghong1983/TVBOXZY/main/js.json",
  "name":"js接口" },
 { 
  "url":"https://raw.iqiq.io/zhanghong1983/TVBOXZY/main/xb.json",
  "name":"xb接口" }, 
 { 
  "url":"https://raw.iqiq.io/zhanghong1983/TVBOXZY/main/xp.json",
  "name":"xp接口" },
 {
  "url":"https://raw.iqiq.io/zhanghong1983/TVBOXZY/main/18.json", 
  "name":"18接口" 
  }
 ]
} 
