{ 
"storeHouse": [
{
   "sourceName": "***更多仓更新中-此仓勿选***",
    "sourceUrl": ""
}, 
{
    "sourceName": "douya专属仓",
    "sourceUrl": "https://gitlab.com/douya2501/douya/-/raw/main/douya.json"
},
{
    "sourceName": "💖欧歌〔多条线路〕",
    "sourceUrl": "https://gitlab.com/douya2501/douya/-/raw/main/ouge.json"
},
{
    "sourceName":"🌙影视仓①",
     "sourceUrl":"https://gitlab.com/ygbh1/666/-/raw/main/dcang/2.json"
},
{ 
    "sourceName":"🌙影视仓②",
     "sourceUrl":"https://gitlab.com/ygbh1/666/-/raw/main/dcang/1.json"
}, 
{
    "sourceName":"🌙影视仓③",
     "sourceUrl":"https://gitlab.com/ygbh1/666/-/raw/main/dcang/3.json"
}, 
{
    "sourceName":"🌙影视仓④",
    "sourceUrl":"https://gitlab.com/ygbh1/666/-/raw/main/dcang/4.json"
},
{
    "sourceName":"张弘仓",
    "sourceUrl":"https://ghproxy.com/https://raw.githubusercontent.com/zhanghong1983/TVBOXZY/main/1"
}, 
{
   "sourceName": "派大星1号仓",
    "sourceUrl": "https://jihulab.com/Jihu10216061/jihucang1/-/raw/main/%E6%B4%BE%E5%A4%A7%E6%98%9F1%E5%8F%B7%E6%8E%A5%E5%8F%A3.txt"
}, 
{
    "sourceName": "派大星2号仓",
    "sourceUrl": "https://jihulab.com/Jihu10216061/jihucang1/-/raw/main/%E6%B4%BE%E5%A4%A7%E6%98%9F2%E5%8F%B7%E6%8E%A5%E5%8F%A3.txt"
},
{
   "sourceName": "派大星3号仓",
    "sourceUrl": "https://jihulab.com/Jihu10216061/jihucang1/-/raw/main/%E6%B4%BE%E5%A4%A7%E6%98%9F3%E5%8F%B7%E6%8E%A5%E5%8F%A3.txt"
},
{
   "sourceName": "派大星4号仓",
    "sourceUrl": "https://jihulab.com/Jihu10216061/jihucang1/-/raw/main/%E6%B4%BE%E5%A4%A7%E6%98%9F4%E5%8F%B7%E6%8E%A5%E5%8F%A3.txt"
},
{
   "sourceName": "派大星5号仓",
    "sourceUrl": "https://jihulab.com/Jihu10216061/jihucang1/-/raw/main/%E6%B4%BE%E5%A4%A7%E6%98%9F5%E5%8F%B7%E6%8E%A5%E5%8F%A3.txt"
},
{
   "sourceName": "派大星6号仓",
    "sourceUrl": "https://jihulab.com/Jihu10216061/jihucang1/-/raw/main/%E6%B4%BE%E5%A4%A7%E6%98%9F6%E5%8F%B7%E6%8E%A5%E5%8F%A3.txt"
},
{
   "sourceName": "派大星7号仓",
    "sourceUrl": "https://jihulab.com/Jihu10216061/jihucang1/-/raw/main/%E6%B4%BE%E5%A4%A7%E6%98%9F7%E5%8F%B7%E6%8E%A5%E5%8F%A3.txt"
},
{
   "sourceName": "派大星8号仓",
    "sourceUrl": "https://jihulab.com/Jihu10216061/jihucang1/-/raw/main/%E6%B4%BE%E5%A4%A7%E6%98%9F8%E5%8F%B7%E6%8E%A5%E5%8F%A3.txt"
},
{
   "sourceName": "派大星9号仓",
    "sourceUrl": "https://jihulab.com/Jihu10216061/jihucang1/-/raw/main/%E6%B4%BE%E5%A4%A7%E6%98%9F9%E5%8F%B7%E6%8E%A5%E5%8F%A3.txt"
},
{
   "sourceName": "✨agit1仓库",
    "sourceUrl": "https://agit.ai/caesar_518/my/raw/branch/master/mybox.txt"
},
{
   "sourceName": "✨agit2仓库",
    "sourceUrl": "https://agit.ai/caesar_518/my/raw/branch/master/mybox2.txt"
},
{
   "sourceName": "多多优选仓",
    "sourceUrl": "https://jihulab.com/duomv/apps/-/raw/main/1.txt"
},
{
   "sourceName": "多多公众仓",
    "sourceUrl": "https://jihulab.com/duomv/apps/-/raw/main/2.txt"
},
{
   "sourceName": "多多聚合仓",
    "sourceUrl": "https://jihulab.com/duomv/apps/-/raw/main/3.txt"
},
{
   "sourceName": "多多预备仓",
    "sourceUrl": "https://jihulab.com/duomv/apps/-/raw/main/4.txt"
},
{
   "sourceName":"⛽️github1仓库",
    "sourceUrl":"https://github.com/caesar518/my/raw/main/mybox.txt"
},
{
   "sourceName":"🏓github2仓库",
    "sourceUrl":"https://github.com/caesar518/my/raw/main/mybox2.txt"
},
{
    "sourceName":"☁️云星仓库",
     "sourceUrl":"https://maoyingshi.cc/可视TV/117/api.json"
},
{
    "sourceName":"⛵️星河仓库",
     "sourceUrl":"https://pan.css.lc/api/v3/file/get/89945/%E6%98%9F%E6%B2%B3%E8%BD%AF%E4%BB%B6%E5%9B%AD%E5%A4%9A%E7%BA%BF%E8%B7%AF%E4%BB%93%E5%BA%93.txt?sign=2ajJ85uhS8mnmvvOICeW4a8d1AeVjp5VFZvBgbAz0cc%3D%3A0"
},
{
    "sourceName":"🏆星河💙2仓🏆",
    "sourceUrl":"https://agit.ai/pinghui/xinghe/raw/commit/272fbb5697a8aa6abb60c7bd76252f9c13c89a24/ronghe.txt"
}, 
{
    "sourceName":"🏆星河💙3仓🏆",
    "sourceUrl":"https://agit.ai/pinghui/xinghe/raw/commit/173c9f20901ce30930a3459ec06311607e2ba805/%e6%98%9f%e6%b2%b33%e4%bb%93.txt"
},
{
    "sourceName":"🏆星河💙4仓🏆",
    "sourceUrl":"https://agit.ai/pinghui/Barton/raw/commit/dd894d96713a1601bdb212f796dc2738e14f514a/%e5%9b%9b%e4%bb%93%e4%ba%91%e6%98%9f.txt"
}, 
{
    "sourceName":"🏆星河💙5仓🏆",
    "sourceUrl":"https://agit.ai/hu/hcr/raw/commit/beb954f1ae6828ab8dc86b4059cf98e6378bce3b/duo.txt"
}, 
{
    "sourceName":"🏆星河💙6仓🏆",
    "sourceUrl":"https://gitlab.com/duomv/apps/-/raw/main/2.txt"
},
{ 
    "sourceName": "🏆星河💜7仓🏆", 
    "sourceUrl": "https://gitlab.com/duomv/apps/-/raw/main/3.txt"
}, 
{ 
    "sourceName": "🏆星河💜8仓🏆",
     "sourceUrl": "https://gitcode.net/wzlyd1/00/-/raw/master/1.txt" 
}, 
{ 
    "sourceName": "🏆星河💜9仓🏆", 
     "sourceUrl": "http://tv.nxog.top/api.php?id=26" 
},
{ 
    "sourceName": "🏆星河💜10仓🏆",
     "sourceUrl": "http://tv.nxog.top/api.php?id=25" 
}, 
{ 
    "sourceName": "🏆星河💜12仓🏆",
     "sourceUrl": "https://raw.iqiq.io/zhanghong1983/TVBOXZY/main/1" 
}, 
{ 
    "sourceName": "🏆星河💙13仓🏆",
     "sourceUrl": "https://gitcode.net/wzlyd1/00/-/raw/master/0.txt" 
}, 
{ 
    "sourceName": "🏆星河💜14仓🏆",
     "sourceUrl": "https://agit.ai/66666/mao/raw/commit/0ec2c15e9a1a0df2ae6c44b4d7d7a4083d6d6f77/00/xx/0update_yuan" 
},
{ 
    "sourceName": "🏆星河💜15仓🏆",
     "sourceUrl": "https://agit.ai/leroy/leroy/raw/branch/master/22.bin"
},
{ 
    "sourceName": "🏆星河💜16仓🏆",
     "sourceUrl": "https://raw.iqiq.io/leevi0709/apps/main/3"
}, 
{
     "sourceName": "🏆星河💙17仓🏆",
      "sourceUrl": "https://maoyingshi.cc/可视TV/117/api.json"
}, 
{
     "sourceName": "🍑网络💜精选②🍑",
      "sourceUrl": "https://agit.ai/66666/mao/raw/commit/0ec2c15e9a1a0df2ae6c44b4d7d7a4083d6d6f77/00/xx/0update_yuan" 
}, 
{ 
    "sourceName": "🍑网络💜精选③🍑",
     "sourceUrl": "https://vkceyugu.cdn.bspapp.com/VKCEYUGU-f365e319-1b15-4229-8d34-50ae05216295/f5d5dbc6-d403-4cc4-92d5-f213319713bf.jpg" 
},
 { 
     "sourceName": "🍑网络💜精选⑤🍑",
      "sourceUrl": "https://vkceyugu.cdn.bspapp.com/VKCEYUGU-f365e319-1b15-4229-8d34-50ae05216295/94442143-d489-42ae-a79d-f2c00db61903.jpg" 
}, 
{
     "sourceName": "🍑网络💜精选⑥🍑",
      "sourceUrl": "https://vkceyugu.cdn.bspapp.com/VKCEYUGU-f365e319-1b15-4229-8d34-50ae05216295/de5cb406-a6c0-471f-9921-66ec910e5ba6.jpg"
}, 
{ 
    "sourceName": "🍑网络💜精选⑦🍑",
     "sourceUrl": "https://vkceyugu.cdn.bspapp.com/VKCEYUGU-f365e319-1b15-4229-8d34-50ae05216295/f721e0c9-7882-4352-acb2-c0a78539ba44.jpg" 
}, 
{
     "sourceName": "🍑网络💜精选⑧🍑",
      "sourceUrl": "https://vkceyugu.cdn.bspapp.com/VKCEYUGU-f365e319-1b15-4229-8d34-50ae05216295/53e584f7-48da-40b1-b213-e71e5055f3cb.jpg" 
}, 
{ 
    "sourceName": "🍑网络💜精选⑨🍑",
     "sourceUrl": "https://vkceyugu.cdn.bspapp.com/VKCEYUGU-f365e319-1b15-4229-8d34-50ae05216295/bd7b7d4d-164b-4117-aed3-c78496ef284d.jpg" 
},
{ 
    "sourceName": "🍑网络💜精选⑩🍑", 
     "sourceUrl": "https://cn.kstore.space/download/2904/123.txt" 
}, 
{ 
    "sourceName": "🍑网络💜精选11🍑", 
      "sourceUrl": "https://box.nxog.top/1" 
}, 
{ 
    "sourceName": "🍑网络💜精选12🍑",
     "sourceUrl": "https://agit.ai/zqk219/baip/raw/branch/master/6 " 
}, 
{ 
    "sourceName": "🍑网络💜精选13🍑",
     "sourceUrl": "https://vkceyugu.cdn.bspapp.com/VKCEYUGU-f365e319-1b15-4229-8d34-50ae05216295/1bf5f4d3-893c-49e7-9ec0-56017a4f6b90.jpg" 
}, 
{ 
    "sourceName": "🍑网络💜精选14🍑",
     "sourceUrl": "https://agit.ai/dlee2008/66666/raw/branch/master/update_yuan.txt" 
} 
  ]
}
