{

//0730JAR
"spider":"https://jihulab.com/ygbh1/box/-/raw/main/JAR/1215.jar;md5;58BACE2715918A6FD783931D03586372",

"lives":[{"group":"redirect","channels":[{"name":"redirect","urls":["proxy://do=live&type=txt&ext=aHR0cHM6Ly9hZ2l0LmFpL2d1b3Q1NC95Z2JoL3Jhdy9icmFuY2gvbWFzdGVyL3pCL3pCLnR4dA=="]}]}],

"sites":[
    {"key": "js豆瓣1","name": "🌈豆瓣首页","type": 3,"api": "https://agit.ai/767820774/TVBOXZY/raw/branch/main/JS/lib/drpy.min.js","ext": "http://id.ganggang.live:63/js/js_drpy.js","searchable": 0,"quickSearch": 0,"filterable": 0},
    {"key": "csp_新视觉","name": "🍁新视觉","type": 3,"api": "csp_Xinsj","searchable": 1,"quickSearch": 1,"filterable": 1,"jar":"https://jihulab.com/ygbh1/box/-/raw/main/JAR/%E6%96%B0%E8%A7%86%E8%A7%89.jar;md5;ECF7785B6F419593E3B1EE190F3903D1"},   
    {"key":"csp_biubiu_dadagui","name":"🐢达达龟","type":3,"api":"csp_XPathFilter","searchable":1,"quickSearch":1,"filterable":0,"ext":"https://agit.ai/guot54/ygbh/raw/branch/master/XB/dadagui.json"},
    {"key":"19","name":"请勿相信视频中的任何广告","type":0,"api":""},
    {"key":"1","name":"🔞🈲未成年人禁止访问，请止步！！","type":0,"api":""},
    {"key":"18","name":"🔞🈲分割线——————","type":0,"api":""},
    {"key":"12","name":"🔞分割线——————","type":0,"api":""},
    {"key":"AList",	"name":"🔞AList",	"type":3,"api":"csp_AList",	"searchable":1,"filterable":1,"ext":"🔞9T$https://drive.9t.ee#🔞木偶$https://www.kugutsu.ml",	"jar": "https://gitlab.com/ygbh1/666/-/raw/main/JAR/cs.jar"},
	{"key" : "drpy_js_喵了个咪","name" : "🔞喵了个咪[请更换解析]","type" : 3,"api" : "https://agit.ai/guot54/TVBOXbh/raw/branch/main/JS/lib/drpy.min.js","ext" : "https://agit.ai/guot54/ygbh/raw/branch/master/JS/%e7%8c%ab%e4%ba%86%e4%b8%aa%e5%92%aa.js"},
		 //{"key": "csp_xBPQ_juyou","name": "🏆聚优直播","type": 3,"api": "csp_xBPQ","searchable": 1,"quickSearch": 1,"filterable": 0,"ext": "https://codeberg.org/ygbh8888/xingkongbujian/raw/branch/main/H/ju2.json"},
    {"key": "csp_xBPQ_香蕉AV解说","name": "🏆香蕉解说","type": 3,"api": "csp_xBPQ","searchable": 1,"quickSearch": 1,"filterable": 0,"ext": "https://jihulab.com/ygbh1/box/-/raw/main/H/%E9%A6%99%E8%95%89%E8%A7%A3%E8%AF%B4.json"},
    {"key": "csp_xBPQ_香蕉资源","name": "🏆香蕉资源","type": 3,"api": "csp_xBPQ","searchable": 1,"quickSearch": 1,"filterable": 0,"ext": "https://jihulab.com/ygbh1/box/-/raw/main/H/%E9%A6%99%E8%95%89%E8%B5%84%E6%BA%90.json"},
    {"key": "csp_xBPQ_香蕉超清","name": "🏆香蕉超清","type": 3,"api": "csp_xBPQ","searchable": 1,"quickSearch": 1,"filterable": 0,"ext": "https://jihulab.com/ygbh1/box/-/raw/main/H/%E9%A6%99%E8%95%89%E8%B6%85%E6%B8%85.json","jar":"https://gitlab.com/ygbh1/666/-/raw/main/H/h.jar"},
    {"key": "csp_xBPQ_香蕉国产","name": "🏆香蕉国产","type": 3,"api": "csp_xBPQ","searchable": 1,"quickSearch": 1,"filterable": 0,"ext": "https://jihulab.com/ygbh1/box/-/raw/main/H/%E9%A6%99%E8%95%89%E5%9B%BD%E4%BA%A7.json"},
    {"key": "csp_xBPQ_香蕉久久热","name": "🏆香蕉久久热","type": 3,"api": "csp_xBPQ","searchable": 1,"quickSearch": 1,"filterable": 0,"ext": "https://jihulab.com/ygbh1/box/-/raw/main/H/%E9%A6%99%E8%95%89%E4%B9%85%E4%B9%85%E7%83%AD.json"},
    {"key": "csp_xBPQ_香蕉废柴","name": "🏆香蕉废柴","type": 3,"api": "csp_xBPQ","searchable": 1,"quickSearch": 1,"filterable": 0,"ext": "https://jihulab.com/ygbh1/box/-/raw/main/H/%E9%A6%99%E8%95%89%E5%BA%9F%E6%9F%B4.json"},
    {"key": "csp_xBPQ_香蕉直播","name": "🏆香蕉直播","type": 3,"api": "csp_xBPQ","searchable": 1,"quickSearch": 1,"filterable": 0,"ext": "https://jihulab.com/ygbh1/box/-/raw/main/H/%E9%A6%99%E8%95%89%E7%9B%B4%E6%92%AD.json"},
    {"key": "csp_xBPQ_香蕉搜索","name": "🏆香蕉搜索","type": 3,"api": "csp_xBPQ","searchable": 1,"quickSearch": 1,"filterable": 0,"ext": "https://jihulab.com/ygbh1/box/-/raw/main/H/%E9%A6%99%E8%95%89%E6%90%9C%E7%B4%A2.json"},
    {"key": "csp_xBPQ_天天综合","name": "🏆天天综合","type": 3,"api": "csp_xBPQ","searchable": 1,"quickSearch": 1,"filterable": 0,"ext": "https://codeberg.org/ygbh8888/xingkongbujian/raw/branch/main/H/%E5%A4%A9%E5%A4%A9%E7%BB%BC%E5%90%88.json"},
    {"key": "csp_xBPQ_右手影院","name": "🏆右手影院","type": 3,"api": "csp_xBPQ","searchable": 1,"quickSearch": 1,"filterable": 0,"ext": "https://codeberg.org/ygbh8888/xingkongbujian/raw/branch/main/H/%E5%8F%B3%E6%89%8B%E5%BD%B1%E9%99%A2.json"},
    {"key": "csp_xBPQ_实时直播","name": "🏆实时直播","type": 3,"api": "csp_xBPQ","searchable": 1,"quickSearch": 1,"filterable": 0,"ext": "https://codeberg.org/ygbh8888/xingkongbujian/raw/branch/main/H/%E5%AE%9E%E6%97%B6%E7%9B%B4%E6%92%AD.json"},
    {"key": "csp_xBPQ_左临右射","name": "🏆左临右射","type": 3,"api": "csp_xBPQ","searchable": 1,"quickSearch": 1,"filterable": 0,"ext": "https://codeberg.org/ygbh8888/xingkongbujian/raw/branch/main/H/%E5%B7%A6%E4%B8%B4%E5%8F%B3%E5%B0%84.json"},
    {"key": "csp_xBPQ_色华堂","name": "🏆色花堂","type": 3,"api": "csp_xBPQ","searchable": 1,"quickSearch": 1,"filterable": 0,"ext": "https://codeberg.org/ygbh8888/xingkongbujian/raw/branch/main/H/%E8%89%B2%E8%8A%B1%E5%A0%82.json"},
    {"key": "csp_xBPQ_黄瓜TV","name": "🏆黄瓜TV","type": 3,"api": "csp_xBPQ","searchable": 1,"quickSearch": 1,"filterable": 0,"ext": "https://codeberg.org/ygbh8888/xingkongbujian/raw/branch/main/H/%E9%BB%84%E7%93%9CTV.json"},
    {"key": "csp_xBPQ-爱看影院","name": "🏆爱看影院️","type": 3,"api": "csp_xBPQ","searchable": 1,"quickSearch": 1,"filterable": 0,"ext": "https://codeberg.org/ygbh8888/xingkongbujian/raw/branch/main/H/%E7%88%B1%E7%9C%8B%E5%BD%B1%E9%99%A2.json"},
    {"key": "csp_xBPQ_麻豆映画","name": "🏆麻豆映画","type": 3,"api": "csp_xBPQ","searchable": 1,"quickSearch": 1,"filterable": 0,"ext": "https://gitlab.com/ygbh1/666/-/raw/main/H/%E9%BA%BB%E8%B1%86%E6%98%A0%E7%94%BB.json"},
    {"key": "csp_xBPQ_香蕉","name": "🏆香蕉","type": 3,"api": "csp_xBPQ","searchable": 1,"quickSearch": 1,"filterable": 0,"ext": "https://jihulab.com/ygbh1/box/-/raw/main/H/%E9%A6%99%E8%95%89.json"},
    {"key": "csp_xBPQ_性欲轮回","name": "🏆性欲轮回","type": 3,"api": "csp_xBPQ","searchable": 1,"quickSearch": 1,"filterable": 0,"ext": "https://jihulab.com/ygbh1/box/-/raw/main/H/%E6%80%A7%E6%AC%B2%E8%BD%AE%E5%9B%9E.json"},
    {"key": "csp_xBPQ_性欲轮回[分类]","name": "🏆性欲轮回[分类]","type": 3,"api": "csp_xBPQ","searchable": 1,"quickSearch": 1,"filterable": 0,"ext": "https://jihulab.com/ygbh1/box/-/raw/main/H/%E6%80%A7%E6%AC%B2%E8%BD%AE%E5%9B%9E_%E5%88%86%E7%B1%BB_.json"},
    {"key": "csp_xBPQ_精东影业1","name": "🏆精东影业1","type": 3,"api": "csp_xBPQ","searchable": 1,"quickSearch": 1,"filterable": 0,"ext": "https://jihulab.com/ygbh1/box/-/raw/main/H/%E7%B2%BE%E4%B8%9C%E5%BD%B1%E4%B8%9A1.json"},
    {"key": "csp_xBPQ_精东影业2","name": "🏆精东影业2","type": 3,"api": "csp_xBPQ","searchable": 1,"quickSearch": 1,"filterable": 0,"ext": "https://jihulab.com/ygbh1/box/-/raw/main/H/%E7%B2%BE%E4%B8%9C%E5%BD%B1%E4%B8%9A2.json"},
    {"key": "csp_xBPQ_玩偶","name": "💘玩偶姐姐(墙外）","type": 3,"api": "csp_xBPQ","searchable": 1,"quickSearch": 1,"filterable": 1,"ext": "https://codeberg.org/ygbh8888/xingkongbujian/raw/branch/main/H/%E7%8E%A9%E5%81%B6%E5%A7%90%E5%A7%90.json"},
    {"key": "csp_xBPQ_AVideo","name": "🏆AVideo","type": 3,"api": "csp_xBPQ","searchable": 1,"quickSearch": 1,"filterable": 0,"ext": "https://jihulab.com/ygbh1/box/-/raw/main/H/AVideo.json"},
    {"key": "csp_XBiu_小丑撸","name": "🍁小丑撸(XB)","type": 3,"api": "csp_XBiubiu","searchable": 1,"quickSearch": 1,"filterable": 0,"ext": "https://jihulab.com/ygbh1/box/-/raw/main/H/%E5%B0%8F%E4%B8%91%E6%92%B8.json"},
    {"key": "csp_XBiu_国产传媒","name": "🍁国产传媒(XB)","type": 3,"api": "csp_XBiubiu","searchable": 1,"quickSearch": 1,"filterable": 0,"ext": "https://jihulab.com/ygbh1/box/-/raw/main/H/%E5%9B%BD%E4%BA%A7%E4%BC%A0%E5%AA%92.json"},
    {"key": "csp_XBiu_老鸭","name": "🍁老鸭(XB)","type": 3,"api": "csp_XBiubiu","searchable": 1,"quickSearch": 1,"filterable": 1,"ext": "https://jihulab.com/ygbh1/box/-/raw/main/H/%E8%80%81%E9%B8%AD.json"},
    {"key": "csp_XBiu_掏爱撸","name": "🍁掏爱撸(XB)","type": 3,"api": "csp_XBiubiu","searchable": 1,"quickSearch": 1,"filterable": 1,"ext": "https://jihulab.com/ygbh1/box/-/raw/main/H/%E6%8E%8F%E7%88%B1%E6%92%B8.json"},
    {"key": "csp_XBiu_国产屋","name": "🍁国产屋(XB)","type": 3,"api": "csp_XBiubiu","searchable": 1,"quickSearch": 1,"filterable": 1,"ext": "https://jihulab.com/ygbh1/box/-/raw/main/H/%E5%9B%BD%E4%BA%A7%E5%B1%8B.json"},
    {"key": "csp_XBiu_爱污传媒","name": "🍁爱污传媒(XB)","type": 3,"api": "csp_xBPQ","searchable": 1,"quickSearch": 1,"filterable": 1,"ext": "https://codeberg.org/ygbh8888/xingkongbujian/raw/branch/main/H/%E7%88%B1%E6%B1%A1%E4%BC%A0%E5%AA%92.json"},
    {"key": "csp_XBiu_猫咪","name": "🍁猫咪(XB)","type": 3,"api": "csp_XBiubiu","searchable": 1,"quickSearch": 1,"filterable": 1,"ext": "https://jihulab.com/ygbh1/box/-/raw/main/H/%E7%8C%AB%E5%92%AA.json"},
	{"key":"XYQBiu_测试2",	"name":"🔞zb(QXB)","type":3,"api":"csp_XYQBiu","searchable":1,"quickSearch":1,"filterable":0,"ext":"https://agit.ai/guot54/ygbh/raw/branch/master/XB/zb.json",		"jar": "https://agit.ai/guot54/ygbh/raw/branch/master/JAR/1103.jar"},
	{"key":"XYQBiu_测试3",	"name":"🔞cqzy(QXB)","type":3,"api":"csp_XYQBiu","searchable":1,"quickSearch":1,"filterable":0,"ext":"https://agit.ai/guot54/ygbh/raw/branch/master/XB/cqzy.json",	"jar": "https://agit.ai/guot54/ygbh/raw/branch/master/JAR/1103.jar"},
	{"key":"XYQBiu_测试4",	"name":"🔞nsss(QXB)","type":3,"api":"csp_XYQBiu","searchable":1,"quickSearch":1,"filterable":0,"ext":"https://agit.ai/guot54/ygbh/raw/branch/master/XB/nsss.json",	"jar": "https://agit.ai/guot54/ygbh/raw/branch/master/JAR/1103.jar"},
	{"key":"csp_hsck",		"name":"🔞Hsck","api":"csp_Hsck","type":3,"filterable":1,"quickSearch":1,"searchable":1,"ext":"https://www.javsee.men/","jar": "http://52bsj.vip:81/api/v3/file/get/61635/18.jar?sign=TqxkdwFQQUaAK59b950h1sgG8P6HKPbIGIFgvsBrhtQ%3D%3A0"},	
    {
      "key": "18AV",
      "name": "🔞18AV",
      "type": 3,
      "api": "csp_Eighteen",
      "searchable": 1,
      "filterable": 1,"jar":"https://agit.ai/guot54/ygbh/raw/branch/master/JAR/118.jar"
    },
{"key":"*色南国资源","name":"*🔞色南国资源","type":1,"api":"https://api.sexnguon.com/api.php/provide/vod/","searchable":0,"quickSearch":0},
{"key":"*狼友资源","name":"*🔞狼友资源","type":1,"api":"https://www.langyouzy.com/api.php/provide/vod/","searchable":0,"quickSearch":0},
{"key":"*皇冠资源","name":"*🔞皇冠资源","type":1,"api":"https://hghhh.com/api.php/provide/vod/","searchable":0,"quickSearch":0},
{"key": "*AIvin","name": "*🔞AIvin","type": 0,"api": "http://lbapiby.com/api.php/provide/vod/at/xml"},
{"key":"csp_biubiu_GAOAA","name":"*🔞GAOAA(XB)","type":3,"api":"csp_XBiubiu","searchable":1,"quickSearch":1,"filterable":1,"ext":"http://52bsj.vip:81/api/v3/file/get/42848/GAOAA.json?sign=RTEogEmpqCt7cdlDCudsxV_SNXZR11Qx11Z5_bDuEYE%3D%3A0"},	

{ "key": "(18+)SS资源", "name": "*🔞SS资源", "type": 0, "api": "http://secj8.com/inc/sapi.php?ac=videolist", "searchable": 1, "quickSearch": 1, "filterable": 0 },	
{ "key": "(18+)JAV名优", "name": "*🔞JAV名优", "type": 0, "api": "http://mygzycj.com/api.php?ac=list", "searchable": 1, "quickSearch": 1, "filterable": 0 },	
{ "key": "(18+)秀色资源", "name": "🔞秀色资源", "type": 0, "api": "https://api.xiuseapi.com/api.php/provide/vod/at/xml", "playUrl": "https://player.leyuzy.net/?url=", "searchable": 1, "quickSearch": 1, "filterable": 0 },	
{"key": "精工厂","name": "*🔞精工厂","type": 0,"api": "https://jgczyapi.com/home/cjapi/kld2/mc/vod/xml","searchable":0,"quickSearch":0,"filterable":0,"jar":"https://share.nite07.com/api/v3/file/source/18178/18.jar?sign=4snwZEDuzr88tmVvCLDre0Jjbt5hOKh7zrtE37bQV30%3D%3A0"},

{"key": "美少女","name": "*🔞美少女","type": 0,"api": "https://www.msnii.com/api/xml.php","searchable":0,"quickSearch":0,"filterable": 1,"jar":"https://share.nite07.com/api/v3/file/source/18178/18.jar?sign=4snwZEDuzr88tmVvCLDre0Jjbt5hOKh7zrtE37bQV30%3D%3A0"},
{"key": "哥哥妹妹","name": "*🔞有哥妹","type": 0,"api": "http://www.ggmmzy.com:9999/inc/xml","searchable": 0,"quickSearch": 0,"filterable": 0,"jar":"https://share.nite07.com/api/v3/file/source/18178/18.jar?sign=4snwZEDuzr88tmVvCLDre0Jjbt5hOKh7zrtE37bQV30%3D%3A0"},
{"key": "*CK资源","name": "*🔞纯在线","type": 1,"api": "http://www.feifei67.com/api.php/provide/vod/","searchable":0,"quickSearch":0,"filterable": 0,"jar":"https://share.nite07.com/api/v3/file/source/18178/18.jar?sign=4snwZEDuzr88tmVvCLDre0Jjbt5hOKh7zrtE37bQV30%3D%3A0"},
{"key": "*博天堂","name": "*🔞博天堂","type": 0,"api": "http://bttcj.com/inc/sapi.php","searchable":0,"quickSearch":0,"filterable": 0,"jar":"https://share.nite07.com/api/v3/file/source/18178/18.jar?sign=4snwZEDuzr88tmVvCLDre0Jjbt5hOKh7zrtE37bQV30%3D%3A0"},
{"key":"*色猫资源","name":"*🔞色猫资源","type":1,"api":"https://api.maozyapi.com/inc/apijson_vod.php","searchable":0,"quickSearch":0},
{"key":"小姐姐资源","name":"*🔞小姐姐资源","type":0,"api":"https://xjjzyapi.com/home/cjapi/askl/mc10/vod/xml","searchable":1,"quickSearch":1},

{"key":"*精工厂资源","name":"*🔞精工厂资源","type":0,"api":"https://jgczyapi.com/home/cjapi/kld2/mc10/vod/xml","searchable":0,"quickSearch":0},

{"key":"*大MM资源","name":"*🔞大MM资源","type":0,"api":"https://www.dmmapi.com/home/cjapi/asd2c7/mc10/vod/xml","searchable":0,"quickSearch":0},

{"key":"*酷豆资源","name":"*🔞酷豆资源","type":1,"api":"https://kudouzy.com/api.php/provide/vod/","searchable":0,"quickSearch":0},
{"key":"*酷豆2","name":"*🔞酷豆2","type":1,"api":"https://api.kdapi.info/api.php/provide/vod/","searchable":0,"quickSearch":0},
{"key":"*酷伦理","name":"*🔞酷伦理","type":1,"api":"https://api.kudian70.com/api.php/provide/vod/","searchable":0,"quickSearch":0},
{"key":"*影库资源","name":"*🔞影库资源","type":1,"api":"https://api.ykapi.net/api.php/provide/vod/","searchable":0,"quickSearch":0},
{"key":"*奶茶资源","name":"*🔞奶茶资源","type":1,"api":"https://caiji.naichaapi.com/inc/apijson_vod.php","searchable":0,"quickSearch":0},

{"key":"*美少女资源","name":"*🔞美少女资源","type":0,"api":"https://www.msnii.com/api/xml.php","searchable":0,"quickSearch":0},
{"key":"*淫水机资源","name":"*🔞淫水机资源","type":0,"api":"https://www.xrbsp.com/api/xml.php","searchable":0,"quickSearch":0},
{"key":"*香奶儿资源","name":"*🔞香奶儿资源","type":0,"api":"https://www.gdlsp.com/api/xml.php","searchable":0,"quickSearch":0},
{"key":"*白嫖资源","name":"*🔞白嫖资源","type":0,"api":"https://www.kxgav.com/api/xml.php","searchable":0,"quickSearch":0},
{"key":"*小湿妹资源","name":"*🔞小湿妹资源","type":0,"api":"https://www.afasu.com/api/xml.php","searchable":0,"quickSearch":0},
{"key":"*大地资源","name":"*🔞大地资源","type":0,"api":"https://dadiapi.com/api.php","searchable":0,"quickSearch":0},
{"key":"*CK资源","name":"*🔞CK资源","type":1,"api":"http://www.feifei67.com/api.php/provide/vod/","searchable":0,"quickSearch":0},
{"key":"*老鸭资源","name":"*🔞老鸭资源","type":1,"api":"https://api.apilyzy.com/api.php/provide/vod/","searchable":0,"quickSearch":0},
{
      "key": "老鸭2",
      "name": "*🔞老鸭2",
      "type": 1,
      "api": "https://lbapi9.com/api.php/provide/vod/",
      "playUrl": "json:https://player.77lehuo.com/aliplayer/?url=",
      "searchable": 1,
      "quickSearch": 1,
      "filterable": 0
    },
 
{"key":"*乐播资源","name":"*🔞乐播资源","type":1,"api":"https://lbapi9.com/api.php/provide/vod/","searchable":0,"quickSearch":0},
{"key":"*博天堂","name":"*🔞博天堂","type":0,"api":"http://bttcj.com/inc/sapi.php","searchable":0,"quickSearch":0},
{"key":"*环亚资源","name":"*🔞环亚资源","type":0,"api":"http://wmcj8.com/inc/sapi.php","searchable":0,"quickSearch":0},
{ "key": "(18+)天堂福利", "name": "🔞天堂福利", "type": 0, "api": "https://bttcj.com/inc/sapi.php", "searchable": 1, "quickSearch": 1, "filterable": 0 },
{ "key": "afasu", "name": "🔞小湿妹资源(已修复)", "type": 0, "api": "https://www.afasu.com/api/xml.php", "searchable": 1, "quickSearch": 1, "filterable": 1 },
        { "key": "KpgxdyE", "name": "🔞黄AV资源(已修复)", "type": 0, "api": "https://www.pgxdy.com/api/xml.php", "searchable": 1, "quickSearch": 1, "filterable": 1 },
//{"key":"*AVZY6888资源","name":"*🔞AVZY6888资源","type":1,"api":"http://m.7777688.com/inc/apijson.php","searchable":0,"quickSearch":0},
{"key":"*色色资源","name":"*🔞色色资源","type":0,"api":"http://secj8.com/inc/sapi.php?ac=videolist","searchable":0,"quickSearch":0},
{"key":"*玖玖资源","name":"*🔞玖玖资源","type":0,"api":"http://99zywcj.com/inc/sapi.php?ac=videolist","searchable":0,"quickSearch":0},
{"key":"*狼少年","name":"*🔞狼少年","type":0,"api":"http://cjmygzy.com/inc/sapi.php?ac=videolist","searchable":0,"quickSearch":0},
{"key":"*佳丽资源","name":"*🔞佳丽资源","type":1,"api":"http://www.jializyzapi.com/api.php/provide/vod/","searchable":0,"quickSearch":0},
{"key":"*番号资源","name":"*🔞番号资源","type":1,"api":"http://fhapi9.com/api.php/provide/vod/","searchable":0,"quickSearch":0},
//{"key":"*鲨鱼资源","name":"*🔞鲨鱼资源","type":1,"api":"https://shayuapi.com/api.php/provide/vod/","searchable":0,"quickSearch":0},
{"key":"*速度资源","name":"*🔞速度资源","type":0,"api":"http://www.ggmmzy.com:9999/inc/xml","searchable":0,"quickSearch":0},
//{"key":"*丝袜资源","name":"*🔞丝袜资源","type":1,"api":"https://siwazyw.cc/api.php/provide/vod/at/json/","searchable":0,"quickSearch":0},
//{"key":"*芒果资源","name":"*🔞芒果资源","type":1,"api":"https://mgzyz1.com/api.php/provide/vod/","searchable":0,"quickSearch":0},
{"key":"*KK写真资源","name":"*🔞KK写真资源","type":1,"api":"https://kkzy.me/api.php/provide/vod/","searchable":0,"quickSearch":0}

],


"parses":[
        {
            "name": "Json轮询",
            "type": 2,
            "url": "Sequence"
        },
        {
            "name": "Json并发",
            "type": 2,
            "url": "Parallel"
        },
        {
            "name": "解析聚合",
            "type": 3,
            "url": "Demo"
        },
        {
            "name": "瞄影嗅探",
            "type": 0,
            "url": "http://www.miaoys.cc/vip/?url="
        },
    {"name":"lk","type":1,"url":"https://k.json.icu/home/api?type=ys&uid=6399107&key=bdlmrswBDHIKZ01238&url="},
    {"name": "TVB云播","type": 1,"url": "https://jxm.qwrev534.top/?url="},
    {
            "name": "星辰云解析",
            "type": 1,
            "url": "http://xn--wnup5g.xn--z7x900a.love:63/Art/analysis.php?v=",
            "ext": {
                "flag": [
                    "qq",
                    "腾讯",
                    "企鹅",
                    "IQiYi",
                    "qiyi",
                    "爱奇艺",
                    "奇艺",
                    "youku",
                    "YouKu",
                    "优酷",
                    "sohu",
                    "SoHu",
                    "搜狐",
                    "letv",
                    "LeShi",
                    "乐视",
                    "imgo",
                    "mgtv",
                    "MangGuo",
                    "芒果",
                    "SLYS4k",
                    "BYGA",
                    "luanzi",
                    "AliS",
                    "dxzy",
                    "bilibili",
                    "QEYSS",
                    "xigua",
                    "西瓜视频",
                    "腾讯视频",
                    "奇艺视频",
                    "优酷视频",
                    "芒果视频",
                    "乐视视频"
                ]
            }
        },
 {"name":"777","type": 0,"url":"https://jx.777jiexi.com/player/?url="},
 {"name": "1","type":0,"url":"https://jxdp.codermart.net/?url="},
 {"name":"AG","type":0,"url":"https://www.codjx.com/?url="},
 {
      "name": "月",
      "type": 0,
      "url": "https://jx.xmflv.com/?url="
    },
{"name":"光","type":1,"url":"http://pandown.pro/app/ysmjx.php?url=","ext":{"flag":["qq","腾讯","qiyi","爱奇艺","奇艺","youku","优酷","mgtv","芒果","letv","乐视","pptv","PPTV","sohu","bilibili","哔哩哔哩","哔哩"],"header":{"User-Agent":"okhttp/4.1.0"}}},
{"name":"宝","type":1,"url":"http://jx.fuqizhishi.com:63/API.php?appkey=feimao&url="},
{"name":"盒","type":0,"url":" https://tljiaqing.nde.tw/m3u8/?url="},
{"name":"BOX","type":1,"url":"http://45.248.10.163:4433/json.php?wap=0&url="},
{"name":"解析","type":0,"url":"https://h5.freejson.xyz/player/?url="},
{"name":"解析2","type":1,"url":"rxjx.kuanjv.com/allm3u8.php?url="},
{"name":"解析4","type":1,"url":"http://lanlan.ckflv.cn/?url=","ext":{"flag":["qiyi","qq","letv","sohu","youku","mgtv","bilibili","wasu","xigua","1905"]}},
{"name":"解析5","type":1,"url":"https://www.1920lgzy.top/json.php?url=","ext":{"header":{"User-Agent":"Mozilla/5.0"}}},
{"name":"解析6","type":1,"url":"https://hc.izny.cn/json.php?url="},
{"name":"解析7","type":1,"url":"https://rx.bt5v.com/json/jsonindex.php/?url="},
{"name":"解析8","type":1,"url":"https://www.nxflv.com/?url=","header":{"User-Agent":"Mozilla/5.0"}},
{"name":"解析9","type":1,"url":"http://3.37.195.161:54371/parse/api/无名.js?url=","header":{"User-Agent":"Mozilla/5.0"}}
],
	
"rules": [
{"host":"*","rule":["default.365yg.com"]},{"host":"dyxs20.com","rule":[".m3u8"]},{"host":"www.agemys.cc","rule":["cdn-tos","obj/tos-cn"]},{"host":"zjmiao.com","rule":["play.videomiao.vip/API.php","time="]},{"host":"www.sharenice.net","rule":["http.*?/play.{0,3}\\?[^url]{2,8}=.*"]},{"host":"www.sharenice.net","rule":["qianpailive.com","vid="]},{"host":"*","rule":["douyin.com/aweme","video_id="]},{"host":"*","rule":["huoshan.com","/item/video/"]},{"host":"*","rule":["http((?!http).){12,}?\\.(m3u8|mp4|flv|avi|mkv|rm|wmv|mpg|m4a)\\?.*"]},{"host":"*","rule":["http((?!http).){12,}\\.(m3u8|mp4|flv|avi|mkv|rm|wmv|mpg|m4a)"]}
],

"flags":["youku","qq","QQ","iqiyi","qiyi","letv","sohu","tudou","pptv","PPTV","mgtv","ltnb","rx","CL4K","xfyun","wuduzy","wasu","bilibili","renrenmi","xmm","xigua","m1905 ","funshion ","优酷","芒果","腾讯","爱奇艺","奇艺","哔哩哔哩","哔哩"],
"ijk":[
{"group":"软解码","options":[
{"category":4,"name":"opensles","value":"0"},
{"category":4,"name":"overlay-format","value":"842225234"},
{"category":4,"name":"framedrop","value":"1"},
{"category":4,"name":"soundtouch","value":"1"},
{"category":4,"name":"start-on-prepared","value":"1"},
{"category":1,"name":"http-detect-range-support","value":"0"},
{"category":1,"name":"fflags","value":"fastseek"},
{"category":2,"name":"skip_loop_filter","value":"48"},
{"category":4,"name":"reconnect","value":"1"},
{"category":4,"name":"enable-accurate-seek","value":"0"},
{"category":4,"name":"mediacodec","value":"0"},
{"category":4,"name":"mediacodec-auto-rotate","value":"0"},
{"category":4,"name":"mediacodec-handle-resolution-change","value":"0"},
{"category":4,"name":"mediacodec-hevc","value":"0"},
{"category":1,"name":"dns_cache_timeout","value":"600000000"}
]},
{"group":"硬解码","options":[
{"category":4,"name":"opensles","value":"0"},
{"category":4,"name":"overlay-format","value":"842225234"},
{"category":4,"name":"framedrop","value":"1"},
{"category":4,"name":"soundtouch","value":"1"},
{"category":4,"name":"start-on-prepared","value":"1"},
{"category":1,"name":"http-detect-range-support","value":"0"},
{"category":1,"name":"fflags","value":"fastseek"},
{"category":2,"name":"skip_loop_filter","value":"48"},
{"category":4,"name":"reconnect","value":"1"},
{"category":4,"name":"enable-accurate-seek","value":"0"},
{"category":4,"name":"mediacodec","value":"1"},
{"category":4,"name":"mediacodec-auto-rotate","value":"1"},
{"category":4,"name":"mediacodec-handle-resolution-change","value":"1"},
{"category":4,"name":"mediacodec-hevc","value":"1"},
{"category":1,"name":"dns_cache_timeout","value":"600000000"}
]}
],
"wallpaper":"http://www.kf666888.cn/api/tvbox/img",
"ads":["mimg.0c1q0l.cn","www.googletagmanager.com","www.google-analytics.com","mc.usihnbcq.cn","mg.g1mm3d.cn","mscs.svaeuzh.cn","cnzz.hhttm.top","tp.vinuxhome.com","cnzz.mmstat.com","www.baihuillq.com","s23.cnzz.com","z3.cnzz.com","c.cnzz.com","stj.v1vo.top","z12.cnzz.com","img.mosflower.cn","tips.gamevvip.com","ehwe.yhdtns.com","xdn.cqqc3.com","www.jixunkyy.cn","sp.chemacid.cn","hm.baidu.com","s9.cnzz.com","z6.cnzz.com","um.cavuc.com","mav.mavuz.com","wofwk.aoidf3.com","z5.cnzz.com","xc.hubeijieshikj.cn","tj.tianwenhu.com","xg.gars57.cn","k.jinxiuzhilv.com","cdn.bootcss.com","ppl.xunzhuo123.com","xomk.jiangjunmh.top","img.xunzhuo123.com","z1.cnzz.com","s13.cnzz.com","xg.huataisangao.cn","z7.cnzz.com","xg.huataisangao.cn","z2.cnzz.com","s96.cnzz.com","q11.cnzz.com","thy.dacedsfa.cn","xg.whsbpw.cn","s19.cnzz.com","z8.cnzz.com","s4.cnzz.com","f5w.as12df.top","ae01.alicdn.com","www.92424.cn","k.wudejia.com","vivovip.mmszxc.top","qiu.xixiqiu.com","cdnjs.hnfenxun.com","cms.qdwght.com"]
}
